^C:\USERS\PURSE\SOURCE\REPOS\SECTION_02\BULLCOWGAME\PCH.CPP
/c /ZI /JMC /nologo /W3 /WX- /diagnostics:classic /sdl /Od /Oy- /D WIN32 /D _DEBUG /D _CONSOLE /D _UNICODE /D UNICODE /Gm- /EHsc /RTC1 /MDd /GS /fp:precise /permissive- /Zc:wchar_t /Zc:forScope /Zc:inline /Yc"pch.h" /Fp"DEBUG\BULLCOWGAME.PCH" /Fo"DEBUG\\" /Fd"DEBUG\VC141.PDB" /Gd /TP /analyze- /FC C:\USERS\PURSE\SOURCE\REPOS\SECTION_02\BULLCOWGAME\PCH.CPP
^C:\USERS\PURSE\SOURCE\REPOS\SECTION_02\BULLCOWGAME\BULLCOWGAME.CPP
/c /ZI /JMC /nologo /W3 /WX- /diagnostics:classic /sdl /Od /Oy- /D WIN32 /D _DEBUG /D _CONSOLE /D _UNICODE /D UNICODE /Gm- /EHsc /RTC1 /MDd /GS /fp:precise /permissive- /Zc:wchar_t /Zc:forScope /Zc:inline /Yu"pch.h" /Fp"DEBUG\BULLCOWGAME.PCH" /Fo"DEBUG\\" /Fd"DEBUG\VC141.PDB" /Gd /TP /analyze- /FC C:\USERS\PURSE\SOURCE\REPOS\SECTION_02\BULLCOWGAME\BULLCOWGAME.CPP
^C:\USERS\PURSE\SOURCE\REPOS\SECTION_02\BULLCOWGAME\FBULLCOWGAME.CPP
/c /ZI /JMC /nologo /W3 /WX- /diagnostics:classic /sdl /Od /Oy- /D WIN32 /D _DEBUG /D _CONSOLE /D _UNICODE /D UNICODE /Gm- /EHsc /RTC1 /MDd /GS /fp:precise /permissive- /Zc:wchar_t /Zc:forScope /Zc:inline /Yu"pch.h" /Fp"DEBUG\BULLCOWGAME.PCH" /Fo"DEBUG\\" /Fd"DEBUG\VC141.PDB" /Gd /TP /analyze- /FC C:\USERS\PURSE\SOURCE\REPOS\SECTION_02\BULLCOWGAME\FBULLCOWGAME.CPP
^C:\USERS\PURSE\SOURCE\REPOS\SECTION_02\BULLCOWGAME\MAIN.CPP
/c /ZI /JMC /nologo /W3 /WX- /diagnostics:classic /sdl /Od /Oy- /D WIN32 /D _DEBUG /D _CONSOLE /D _UNICODE /D UNICODE /Gm- /EHsc /RTC1 /MDd /GS /fp:precise /permissive- /Zc:wchar_t /Zc:forScope /Zc:inline /Yu"pch.h" /Fp"DEBUG\BULLCOWGAME.PCH" /Fo"DEBUG\\" /Fd"DEBUG\VC141.PDB" /Gd /TP /analyze- /FC C:\USERS\PURSE\SOURCE\REPOS\SECTION_02\BULLCOWGAME\MAIN.CPP
